<svg xmlns="http://www.w3.org/2000/svg" width="774.113" height="1375.436" viewBox="0 0 774.113 1375.436">
  <path id="Path_294" data-name="Path 294" d="M561.422,84.909q121.248,23.36,199.064,118.745T838.3,431.411q0,161.571-103.152,263.77T434.745,797.38H69.19V-573.056H434.745q190.016,0,282.31,92.465t92.293,242.357q0,138.212-69.673,219T561.422,84.909ZM105.384,65.442H445.6q159.251,0,243.4-80.786t84.15-222.89q0-136.265-83.245-216.077T434.745-534.123H105.384Zm329.361,693q173.729,0,270.547-87.6t96.818-239.437q0-149.891-99.532-238.464T431.125,104.375H105.384V758.447Z" transform="translate(840.802 799.88) rotate(180)" fill="rgba(0,150,255,0.24)" stroke="#0096ff" stroke-width="5" opacity="0.11"/>
</svg>
