<svg xmlns="http://www.w3.org/2000/svg" width="25.058" height="25.362" viewBox="0 0 25.058 25.362">
  <g id="Group_44" data-name="Group 44" transform="translate(-1339 -1350)">
    <g id="Ellipse_7" data-name="Ellipse 7" transform="translate(1339 1350)" fill="none" stroke="#fff" stroke-width="1">
      <circle cx="11" cy="11" r="11" stroke="none"/>
      <circle cx="11" cy="11" r="10.5" fill="none"/>
    </g>
    <path id="Path_43" data-name="Path 43" d="M-49.667,1372l6.322,6.035" transform="translate(1407.057 -3.034)" fill="none" stroke="#fff" stroke-width="1"/>
  </g>
</svg>
