<svg xmlns="http://www.w3.org/2000/svg" width="116" height="116" viewBox="0 0 116 116">
  <g id="Group_1042" data-name="Group 1042" transform="translate(-895 -308)">
    <g id="Ellipse_38" data-name="Ellipse 38" transform="translate(895 308)" fill="none" stroke="#0af" stroke-width="3">
      <circle cx="58" cy="58" r="58" stroke="none"/>
      <circle cx="58" cy="58" r="56.5" fill="none"/>
    </g>
    <path id="Path_490" data-name="Path 490" d="M315.743,78.407,285.967,90.949s3.765,43.895,29.776,52.125c26.008-8.23,29.772-52.125,29.772-52.125Zm-.76,42.5a2.033,2.033,0,0,1-1.638.895h-.02a2.02,2.02,0,0,1-1.641-.93l-10.438-15.442a2.32,2.32,0,0,1,.455-3.085,1.961,1.961,0,0,1,2.869.487l8.811,13.026,14.414-20.413a1.961,1.961,0,0,1,2.877-.426,2.491,2.491,0,0,1,.4,3.221Z" transform="translate(636.033 255.926)" fill="#0af"/>
  </g>
</svg>
