<svg xmlns="http://www.w3.org/2000/svg" width="13.4" height="13.4" viewBox="0 0 13.4 13.4">
  <g id="dashboard" transform="translate(0 0)">
    <path id="Path_237" data-name="Path 237" d="M5.165,4.467H.977A.978.978,0,0,1,0,3.49V.977A.978.978,0,0,1,.977,0H5.165a.978.978,0,0,1,.977.977V3.49A.978.978,0,0,1,5.165,4.467ZM.977.838a.14.14,0,0,0-.14.14V3.49a.14.14,0,0,0,.14.14H5.165a.14.14,0,0,0,.14-.14V.977a.14.14,0,0,0-.14-.14Zm0,0" transform="translate(0 0)" fill="#fff"/>
    <path id="Path_238" data-name="Path 238" d="M5.165,221.149H.977A.978.978,0,0,1,0,220.172v-5.863a.978.978,0,0,1,.977-.977H5.165a.978.978,0,0,1,.977.977v5.863A.978.978,0,0,1,5.165,221.149ZM.977,214.17a.14.14,0,0,0-.14.14v5.863a.14.14,0,0,0,.14.14H5.165a.14.14,0,0,0,.14-.14v-5.863a.14.14,0,0,0-.14-.14Zm0,0" transform="translate(0 -207.749)" fill="#fff"/>
    <path id="Path_239" data-name="Path 239" d="M282.5,345.8h-4.187a.978.978,0,0,1-.977-.977v-2.512a.978.978,0,0,1,.977-.977H282.5a.978.978,0,0,1,.977.977v2.512A.978.978,0,0,1,282.5,345.8Zm-4.187-3.629a.14.14,0,0,0-.14.14v2.512a.14.14,0,0,0,.14.14H282.5a.14.14,0,0,0,.14-.14v-2.512a.14.14,0,0,0-.14-.14Zm0,0" transform="translate(-270.074 -332.399)" fill="#fff"/>
    <path id="Path_240" data-name="Path 240" d="M282.5,7.817h-4.187a.978.978,0,0,1-.977-.977V.977A.978.978,0,0,1,278.309,0H282.5a.978.978,0,0,1,.977.977V6.84A.978.978,0,0,1,282.5,7.817ZM278.309.838a.14.14,0,0,0-.14.14V6.84a.14.14,0,0,0,.14.14H282.5a.14.14,0,0,0,.14-.14V.977a.14.14,0,0,0-.14-.14Zm0,0" transform="translate(-270.074 0)" fill="#fff"/>
  </g>
</svg>
